Working with datasets in R: A primer
…
skills <- read_csv(here("data", "helascot_skills.csv"))

Rows: 1904 Columns: 6
── Column specification ────────────────────────────────────────────────────────
Delimiter: ","
chr (2): Subject, LanguageTested
dbl (4): Time, Reading, Argumentation, Narration

ℹ Use `spec()` to retrieve the full column specification for this data.
ℹ Specify the column types or set `show_col_types = FALSE` to quiet this message.

skills

# A tibble: 1,904 × 6
   Subject   Time LanguageTested Reading Argumentation Narration
   <chr>    <dbl> <chr>            <dbl>         <dbl>     <dbl>
 1 A_PLF_1      1 French           0.211             7        NA
 2 A_PLF_1      1 Portuguese       0.579             9         6
 3 A_PLF_1      2 French           0.684            14        10
 4 A_PLF_1      2 Portuguese       0.737            13         9
 5 A_PLF_1      3 French           0.947            14         8
 6 A_PLF_1      3 Portuguese       0.842            13        NA
 7 A_PLF_10     1 French           0.579             5        10
 8 A_PLF_10     1 Portuguese       0.316             6         7
 9 A_PLF_10     2 French           0.474            10         8
10 A_PLF_10     2 Portuguese       0.579             7        NA
# ℹ 1,894 more rows

For each participant (Subject) at each Time (T1, T2, T3) and for each LanguageTested (Portuguese, French, German), we have up to three scores, Reading, Argumentation and Narration, arranged next to each other. But let’s say we wanted to compute, for each participant, their progress on each task in each language from T1 to T2 and from T2 to T3. The way the data are laid out at present, this would at best be pretty difficult to do. But it would be easy if only the data were arranged differently, namely with all three measurements per participant and task next to each other. We can convert this dataset to the desired format in two steps.

First, we make the dataset longer by stacking the different scores under each other rather than next to each other. To this end, we use the function pivot_longer() and specify that we want to stack the values in the Reading, Argumentation, and Narration columns under each other, that we want to call the resulting column Score, and that we want to put the column names in a new column called Skill:

skills_longer <- skills |> 
  pivot_longer(cols = c("Reading", "Argumentation", "Narration"),
               names_to = "Skill", values_to = "Score")
skills_longer

# A tibble: 5,712 × 5
   Subject  Time LanguageTested Skill          Score
   <chr>   <dbl> <chr>          <chr>          <dbl>
 1 A_PLF_1     1 French         Reading        0.211
 2 A_PLF_1     1 French         Argumentation  7    
 3 A_PLF_1     1 French         Narration     NA    
 4 A_PLF_1     1 Portuguese     Reading        0.579
 5 A_PLF_1     1 Portuguese     Argumentation  9    
 6 A_PLF_1     1 Portuguese     Narration      6    
 7 A_PLF_1     2 French         Reading        0.684
 8 A_PLF_1     2 French         Argumentation 14    
 9 A_PLF_1     2 French         Narration     10    
10 A_PLF_1     2 Portuguese     Reading        0.737
# ℹ 5,702 more rows

Then, we make this tibble wider by putting the three measurements per skill and language next to each other using pivot_wider(). We also prefix the Time values with a T.

skills_wider_time <- skills_longer |> 
  pivot_wider(names_from = Time, values_from = Score,
              names_prefix = "T")
skills_wider_time

# A tibble: 2,100 × 6
   Subject  LanguageTested Skill             T1     T2     T3
   <chr>    <chr>          <chr>          <dbl>  <dbl>  <dbl>
 1 A_PLF_1  French         Reading        0.211  0.684  0.947
 2 A_PLF_1  French         Argumentation  7     14     14    
 3 A_PLF_1  French         Narration     NA     10      8    
 4 A_PLF_1  Portuguese     Reading        0.579  0.737  0.842
 5 A_PLF_1  Portuguese     Argumentation  9     13     13    
 6 A_PLF_1  Portuguese     Narration      6      9     NA    
 7 A_PLF_10 French         Reading        0.579  0.474  0.316
 8 A_PLF_10 French         Argumentation  5     10     13    
 9 A_PLF_10 French         Narration     10      8      8    
10 A_PLF_10 Portuguese     Reading        0.316  0.579  0.368
# ℹ 2,090 more rows

Using mutate(), we can now easily compute the differences between T1 and T2 and between T2 and T3:

skills_wider_time |> 
  mutate(ProgressT1_T2 = T2 - T1,
         ProgressT2_T3 = T3 - T2) |> 
  select(Subject, LanguageTested, Skill, ProgressT1_T2, ProgressT2_T3)

# A tibble: 2,100 × 5
   Subject  LanguageTested Skill         ProgressT1_T2 ProgressT2_T3
   <chr>    <chr>          <chr>                 <dbl>         <dbl>
 1 A_PLF_1  French         Reading               0.474         0.263
 2 A_PLF_1  French         Argumentation         7             0    
 3 A_PLF_1  French         Narration            NA            -2    
 4 A_PLF_1  Portuguese     Reading               0.158         0.105
 5 A_PLF_1  Portuguese     Argumentation         4             0    
 6 A_PLF_1  Portuguese     Narration             3            NA    
 7 A_PLF_10 French         Reading              -0.105        -0.158
 8 A_PLF_10 French         Argumentation         5             3    
 9 A_PLF_10 French         Narration            -2             0    
10 A_PLF_10 Portuguese     Reading               0.263        -0.211
# ℹ 2,090 more rows

Now imagine that we wanted to compute, for each participant in each skill at each data collection, the difference between the Portuguese score and the German/French score. The first step is the same, resulting in skills_longer. The second step is now similar, but we put the different languages next to each other:

skills_wider_language <- skills_longer |> 
  pivot_wider(names_from = LanguageTested, values_from = Score)
skills_wider_language

# A tibble: 3,999 × 6
   Subject   Time Skill         French Portuguese German
   <chr>    <dbl> <chr>          <dbl>      <dbl>  <dbl>
 1 A_PLF_1      1 Reading        0.211      0.579     NA
 2 A_PLF_1      1 Argumentation  7          9         NA
 3 A_PLF_1      1 Narration     NA          6         NA
 4 A_PLF_1      2 Reading        0.684      0.737     NA
 5 A_PLF_1      2 Argumentation 14         13         NA
 6 A_PLF_1      2 Narration     10          9         NA
 7 A_PLF_1      3 Reading        0.947      0.842     NA
 8 A_PLF_1      3 Argumentation 14         13         NA
 9 A_PLF_1      3 Narration      8         NA         NA
10 A_PLF_10     1 Reading        0.579      0.316     NA
# ℹ 3,989 more rows
…
If we needed to, we could make this dataset wider still:

skills_wider_time_language <- skills_longer |> 
  pivot_wider(names_from = c(LanguageTested, Time), # combination of Language and Time
              values_from = Score)
skills_wider_time_language

# A tibble: 1,410 × 11
   Subject  Skill         French_1 Portuguese_1 French_2 Portuguese_2 French_3
   <chr>    <chr>            <dbl>        <dbl>    <dbl>        <dbl>    <dbl>
 1 A_PLF_1  Reading          0.211        0.579    0.684        0.737    0.947
 2 A_PLF_1  Argumentation    7            9       14           13       14    
 3 A_PLF_1  Narration       NA            6       10            9        8    
 4 A_PLF_10 Reading          0.579        0.316    0.474        0.579    0.316
 5 A_PLF_10 Argumentation    5            6       10            7       13    
 6 A_PLF_10 Narration       10            7        8           NA        8    
 7 A_PLF_12 Reading          0.895       NA        1            0.947    0.947
 8 A_PLF_12 Argumentation   10           NA       17           18       21    
 9 A_PLF_12 Narration       11           NA       14           12       12    
10 A_PLF_13 Reading          0.474        0.316    0.421        0.526    0.579
# ℹ 1,400 more rows
# ℹ 4 more variables: Portuguese_3 <dbl>, German_1 <dbl>, German_2 <dbl>,
#   German_3 <dbl>

We could reconvert this tibble to a long one using the code snippet below. The code becomes a bit more complex: The notation French_1:German_3 selects all columns between French_1 and German_3 (including), whereas a so-called regular expression (regex) is used to parse these column names into the Language bit and into the Time bit. For the present example, we don’t need this code snippet since we already have skills_longer. But I wanted to illustrate that such conversions are possible. If you ever need to convert a similar dataset to a longer format, you now know that you can look up the details on the help page of pivot_longer() (?pivot_longer) and take it from there:

skills_wider_time_language |> 
  pivot_longer(cols = French_1:German_3,
               names_to = c("Language", "Time"),
               names_pattern = "(.*)_(.*)",
               values_to = "Score")

# A tibble: 12,690 × 5
   Subject Skill         Language   Time   Score
   <chr>   <chr>         <chr>      <chr>  <dbl>
 1 A_PLF_1 Reading       French     1      0.211
 2 A_PLF_1 Reading       Portuguese 1      0.579
 3 A_PLF_1 Reading       French     2      0.684
 4 A_PLF_1 Reading       Portuguese 2      0.737
 5 A_PLF_1 Reading       French     3      0.947
 6 A_PLF_1 Reading       Portuguese 3      0.842
 7 A_PLF_1 Reading       German     1     NA    
 8 A_PLF_1 Reading       German     2     NA    
 9 A_PLF_1 Reading       German     3     NA    
10 A_PLF_1 Argumentation French     1      7    
# ℹ 12,680 more rows
…
